Division,WeightClassKg,Place,Name,Team,BodyweightKg,Best3SquatKg,Best3BenchKg,Best3DeadliftKg,TotalKg,Equipment,Event,Sex,BirthDate
Boys,51.71,1,Francisco Villarreal,Laredo Nixon,48.53,127.01,86.18,142.88,356.07,Single-ply,SBD,M,
Boys,51.71,2,Daniel Rios,Roma,51.71,113.4,79.38,129.27,322.05,Single-ply,SBD,M,
Boys,51.71,DQ,Gabriel Rios,Roma,51.71,,,,,Single-ply,SBD,M,
Boys,55.79,1,Alexander Moncada,Laredo Martin,53.52,124.74,56.7,120.2,301.64,Single-ply,SBD,M,
Boys,59.87,1,Nolan Raya,Laredo United South,59.87,174.63,99.79,179.17,453.59,Single-ply,SBD,M,
Boys,59.87,2,Jacob Martinez,Hebbronville,59.87,147.42,90.72,167.83,405.97,Single-ply,SBD,M,
Boys,59.87,3,Silverio Martinez,Roma,57.52,154.22,68.04,142.88,365.14,Single-ply,SBD,M,
Boys,59.87,DQ,Jesus Garza,Laredo Cigarroa,59.87,,,,,Single-ply,SBD,M,
Boys,67.13,1,Rey Villastrigo,Laredo United,63.96,161.03,104.33,204.12,469.47,Single-ply,SBD,M,
Boys,67.13,2,Hector Frausto,Del Rio,62.14,140.61,99.79,199.58,439.98,Single-ply,SBD,M,
Boys,67.13,3,Baltazar Perez,Roma,63.96,149.69,97.52,176.9,424.11,Single-ply,SBD,M,
Boys,67.13,4,Emmanuel Sanchez,Del Rio,65.77,161.03,97.52,165.56,424.11,Single-ply,SBD,M,
Boys,67.13,5,Rolando Ramos,Hebbronville,63.05,147.42,102.06,163.29,412.77,Single-ply,SBD,M,
Boys,67.13,6,Luis Guerra,Laredo Nixon,64.86,158.76,86.18,167.83,412.77,Single-ply,SBD,M,
Boys,67.13,7,Sebastian Alvarado,Laredo United,66.22,131.54,90.72,167.83,390.09,Single-ply,SBD,M,
Boys,67.13,8,Jonathan Sonnier-Ruiz,Laredo Martin,63.05,149.69,81.65,154.22,385.55,Single-ply,SBD,M,
Boys,67.13,9,Alex Garcia #12,Del Rio,64.41,142.88,92.99,149.69,385.55,Single-ply,SBD,M,
Boys,67.13,10,Rene Carrasco,Del Rio,63.5,133.81,81.65,151.95,367.41,Single-ply,SBD,M,
Boys,67.13,11,Travis Rodriguez,Laredo United,60.78,117.93,90.72,151.95,360.61,Single-ply,SBD,M,
Boys,67.13,12,Miguel Terrazas,Laredo Nixon,63.96,142.88,88.45,129.27,360.61,Single-ply,SBD,M,
Boys,67.13,13,Oscar Vez,Laredo Cigarroa,61.23,136.08,77.11,142.88,356.07,Single-ply,SBD,M,
Boys,67.13,14,Adolfo Benavides,Laredo Johnson,66.68,122.47,65.77,120.2,308.44,Single-ply,SBD,M,
Boys,67.13,15,Alexis Hernandez,Laredo Nixon,66.22,97.52,74.84,124.74,297.1,Single-ply,SBD,M,
Boys,67.13,DQ,Adrian Garza,Zapata,66.68,,,,,Single-ply,SBD,M,
Boys,74.84,1,Eli Naranjo,Hebbronville,72.12,192.78,92.99,208.65,494.42,Single-ply,SBD,M,
Boys,74.84,2,Leonel Guerrero,Hebbronville,74.39,174.63,115.67,183.7,474,Single-ply,SBD,M,
Boys,74.84,3,Julian Flores,Laredo United South,74.84,154.22,97.52,176.9,428.64,Single-ply,SBD,M,
Boys,74.84,4,Jacob Trevino,Del Rio,69.4,151.95,92.99,170.1,415.04,Single-ply,SBD,M,
Boys,74.84,5,Rene Martinez,Del Rio,68.04,142.88,86.18,167.83,396.89,Single-ply,SBD,M,
Boys,74.84,6,Anthony Vasquez,Laredo United South,74.84,147.42,88.45,147.42,383.29,Single-ply,SBD,M,
Boys,74.84,7,Jeremiah Mendoza,Laredo Alexander,70.76,117.93,65.77,120.2,303.91,Single-ply,SBD,M,
Boys,74.84,8,Gabriel Martinez,Laredo Johnson,72.57,92.99,90.72,97.52,281.23,Single-ply,SBD,M,
Boys,74.84,DQ,Diego Rodriguez,Hebbronville,74.84,,,,,Single-ply,SBD,M,
Boys,74.84,DQ,Joe Chick,Zapata,73.03,195.04,120.2,,,Single-ply,SBD,M,
Boys,74.84,DQ,Jose Lucatero,Laredo Martin,69.4,133.81,,,,Single-ply,SBD,M,
Boys,74.84,DQ,Luis Mendez,Laredo United,72.12,183.7,102.06,,,Single-ply,SBD,M,
Boys,74.84,DQ,Trystan Colon,Laredo United,74.39,174.63,,,,Single-ply,SBD,M,
Boys,82.1,1,Damian Gutierrez,Roma,82.1,226.8,154.22,231.33,612.35,Single-ply,SBD,M,
Boys,82.1,2,David Saldana,Zapata,75.02,215.46,129.27,219.99,564.72,Single-ply,SBD,M,
Boys,82.1,3,Carlos Carrillo,Laredo Martin,75.75,222.26,111.13,210.92,544.31,Single-ply,SBD,M,
Boys,82.1,4,Isaiah Chavera,Hebbronville,78.02,188.24,120.2,204.12,512.56,Single-ply,SBD,M,
Boys,82.1,5,Hector Gomez,Del Rio,81.65,195.04,117.93,183.7,496.68,Single-ply,SBD,M,
Boys,82.1,6,Erick Garcia #2,Zapata,81.19,158.76,122.47,185.97,467.2,Single-ply,SBD,M,
Boys,82.1,7,Bruno Guajardo,Laredo United,79.83,183.7,106.59,174.63,464.93,Single-ply,SBD,M,
Boys,82.1,8,Mark Rodriguez,Laredo United South,82.1,183.7,99.79,181.44,464.93,Single-ply,SBD,M,
Boys,82.1,9,Joey Garza,Laredo Nixon,79.83,142.88,79.38,156.49,378.75,Single-ply,SBD,M,
Boys,82.1,10,Ismael Tovar,Zapata,78.47,124.74,95.25,142.88,362.87,Single-ply,SBD,M,
Boys,82.1,11,Alex Vasquez,Laredo United,75.39,120.2,88.45,142.88,351.53,Single-ply,SBD,M,
Boys,82.1,12,Esteban Caballero,Laredo United,79.38,120.2,92.99,129.27,342.46,Single-ply,SBD,M,
Boys,82.1,13,Marcos Valadez Ramos,Laredo Johnson,80.29,117.93,79.38,122.47,319.78,Single-ply,SBD,M,
Boys,82.1,DQ,Andrew Sosa,Laredo Nixon,82.1,,,,,Single-ply,SBD,M,
Boys,82.1,DQ,Riley Puig,Laredo Alexander,82.1,,,,,Single-ply,SBD,M,
Boys,82.1,DQ,Pedro Mora,Laredo Johnson,77.56,99.79,,,,Single-ply,SBD,M,
Boys,82.1,DQ,Luis Perez,Laredo Nixon,82.1,142.88,,,,Single-ply,SBD,M,
Boys,82.1,DQ,Renato Hernandez,Laredo United,80.74,120.2,90.72,,,Single-ply,SBD,M,
Boys,89.81,1,Dale Baez,Hebbronville,84.82,231.33,142.88,197.31,571.53,Single-ply,SBD,M,
Boys,89.81,2,Jordan Rock,Roma,88,206.38,113.4,226.8,546.58,Single-ply,SBD,M,
Boys,89.81,3,Paul Baez,Hebbronville,86.18,208.65,142.88,174.63,526.17,Single-ply,SBD,M,
Boys,89.81,4,Brandon Salazar,Hebbronville,83.91,174.63,154.22,181.44,510.29,Single-ply,SBD,M,
Boys,89.81,5,Domingo Mendiola,Laredo Nixon,86.64,170.1,113.4,208.65,492.15,Single-ply,SBD,M,
Boys,89.81,6,Jesus Calderon,Laredo United,84.82,197.31,111.13,176.9,485.34,Single-ply,SBD,M,
Boys,89.81,7,Eddie Rodriguez,Laredo Johnson,88,165.56,102.06,165.56,433.18,Single-ply,SBD,M,
Boys,89.81,8,Hilario Alfaro,Laredo United South,89.81,142.88,97.52,163.29,403.7,Single-ply,SBD,M,
Boys,89.81,9,Andres Rodriguez,Laredo Nixon,89.36,138.35,88.45,172.37,399.16,Single-ply,SBD,M,
Boys,89.81,10,Agustin Meza,Laredo Alexander,88.45,124.74,70.31,174.63,369.68,Single-ply,SBD,M,
Boys,89.81,DQ,Dominik Ledesma,Laredo Johnson,89.81,,,,,Single-ply,SBD,M,
Boys,89.81,DQ,Alfonso Trevino,Laredo Johnson,89.81,,,,,Single-ply,SBD,M,
Boys,89.81,DQ,Ehud Mendez,Laredo Alexander,89.81,,,,,Single-ply,SBD,M,
Boys,89.81,DQ,Andrew Guerra,Laredo Alexander,88.9,154.22,79.38,,,Single-ply,SBD,M,
Boys,99.79,1,Jose Lopez,Roma,98.88,303.91,129.27,258.55,691.73,Single-ply,SBD,M,
Boys,99.79,2,Alejandro Flores,Del Rio,94.8,238.14,145.15,235.87,619.15,Single-ply,SBD,M,
Boys,99.79,3,Robert Ramos,Roma,98.43,263.08,127.01,219.99,610.08,Single-ply,SBD,M,
Boys,99.79,4,Roel de los Santos,Zapata,91.17,233.6,127.01,247.21,607.81,Single-ply,SBD,M,
Boys,99.79,5,Alex Gomez,Hebbronville,93.89,192.78,127.01,170.1,489.88,Single-ply,SBD,M,
Boys,99.79,6,Gabriel Elizondo,Laredo United South,99.79,183.7,102.06,163.29,449.06,Single-ply,SBD,M,
Boys,99.79,7,Javier Amador,Laredo Martin,99.34,224.53,111.13,111.13,446.79,Single-ply,SBD,M,
Boys,99.79,8,Jorge Medrano,Laredo United South,99.52,156.49,117.93,165.56,439.98,Single-ply,SBD,M,
Boys,99.79,9,Chris Espinoza,Laredo United South,99.79,172.37,90.72,158.76,421.84,Single-ply,SBD,M,
Boys,99.79,DQ,Leroy Gutierrez,Laredo Martin,99.79,,,,,Single-ply,SBD,M,
Boys,99.79,DQ,Carlos Ramos #1,Laredo Cigarroa,99.79,,,,,Single-ply,SBD,M,
Boys,99.79,DQ,Angel Jauregui,Laredo Alexander,99.79,,,,,Single-ply,SBD,M,
Boys,99.79,DQ,Joseph Ruiz,Laredo Martin,99.79,,,,,Single-ply,SBD,M,
Boys,99.79,DQ,Ronnie Guerra,Zapata,93.44,174.63,90.72,,,Single-ply,SBD,M,
Boys,109.77,1,Abraham Rosas,Del Rio,106.14,249.48,131.54,238.14,619.15,Single-ply,SBD,M,
Boys,109.77,2,Max Blanco,Laredo Cigarroa,100.61,226.8,129.27,229.06,585.13,Single-ply,SBD,M,
Boys,109.77,3,Fransisco Galaviz,Laredo Johnson,108.41,235.87,104.33,235.87,576.06,Single-ply,SBD,M,
Boys,109.77,4,Jesus Garcia #11,Roma,105.23,226.8,115.67,208.65,551.11,Single-ply,SBD,M,
Boys,109.77,5,Eleazar Guerra,Laredo United South,109.77,215.46,124.74,185.97,526.17,Single-ply,SBD,M,
Boys,109.77,6,Lauro Soto,Laredo Cigarroa,106.59,206.38,131.54,176.9,514.83,Single-ply,SBD,M,
Boys,109.77,7,Isaac Salazar,Del Rio,108.41,192.78,115.67,206.38,514.83,Single-ply,SBD,M,
Boys,109.77,8,Jaime Garcia #1,Zapata,106.14,206.38,127.01,179.17,512.56,Single-ply,SBD,M,
Boys,109.77,9,Levi Gallegos,Laredo United South,109.77,192.78,124.74,195.04,512.56,Single-ply,SBD,M,
Boys,109.77,10,Leo Solis,Zapata,107.5,165.56,129.27,192.78,487.61,Single-ply,SBD,M,
Boys,109.77,11,Santiago Valdivia,Laredo Nixon,100.7,145.15,79.38,190.51,415.04,Single-ply,SBD,M,
Boys,109.77,12,Arturo Guerra,Laredo Martin,105.69,156.49,74.84,165.56,396.89,Single-ply,SBD,M,
Boys,109.77,DQ,Felipe Rodriguez,Laredo Cigarroa,108.86,195.04,,,,Single-ply,SBD,M,
Boys,124.74,1,Laurencio Lopez,Roma,114.76,256.28,154.22,233.6,644.1,Single-ply,SBD,M,
Boys,124.74,2,Akileo Guerra,Roma,121.11,247.21,172.37,224.53,644.1,Single-ply,SBD,M,
Boys,124.74,3,Gabriel Aguirre,Del Rio,124.28,204.12,108.86,235.87,548.85,Single-ply,SBD,M,
Boys,124.74,4,Carlos Gonzalez,Laredo United,115.21,210.92,133.81,183.7,528.44,Single-ply,SBD,M,
Boys,124.74,5,Robert Benavides,Zapata,122.92,206.38,129.27,183.7,519.36,Single-ply,SBD,M,
Boys,124.74,6,Kristian Jimenez,Laredo Alexander,113.85,188.24,106.59,192.78,487.61,Single-ply,SBD,M,
Boys,124.74,7,Gerardo Gutierrez,Laredo Martin,122.47,158.76,61.23,154.22,374.21,Single-ply,SBD,M,
Boys,124.74+,1,Claudio Padilla,Laredo Johnson,132,272.16,142.88,254.01,669.05,Single-ply,SBD,M,
Boys,124.74+,2,Juan Jose Valadez,Laredo Martin,136.08,276.69,151.95,222.26,650.91,Single-ply,SBD,M,
Boys,124.74+,3,Manuel Torres,Laredo Cigarroa,137.44,263.08,149.69,233.6,646.37,Single-ply,SBD,M,
Boys,124.74+,4,Christopher Rodriguez #3,Hebbronville,135.62,233.6,145.15,208.65,587.4,Single-ply,SBD,M,
Boys,124.74+,5,Ademar Garcia,Hebbronville,134.72,254.01,117.93,199.58,571.53,Single-ply,SBD,M,
Boys,124.74+,6,Daymeonn Vercher,Laredo United South,125.19,183.7,111.13,231.33,526.17,Single-ply,SBD,M,
Boys,124.74+,7,Mike Ramon,Zapata,140.16,185.97,117.93,165.56,469.47,Single-ply,SBD,M,
Boys,124.74+,8,Anthony Salas #2,Laredo Nixon,127.46,181.44,99.79,185.97,467.2,Single-ply,SBD,M,
Boys,124.74+,9,Jerry Calderon,Laredo Alexander,136.08,131.54,81.65,158.76,371.95,Single-ply,SBD,M,
Boys,124.74+,DQ,Jerry Medrano,Laredo Johnson,125.19,,,,,Single-ply,SBD,M,
Boys,124.74+,DQ,Pable Torres,Laredo Johnson,125.19,,,,,Single-ply,SBD,M,
